-------------------------------------------------------------------------------
Test set: com.codebind.LinearSearchTest
-------------------------------------------------------------------------------
Tests run: 1, Failures: 0, Errors: 0, Skipped: 0, Time elapsed: 0.653 sec - in com.codebind.LinearSearchTest
